{
	"urls": [
		"https://merveilles.town/@neauoire.rss",
		"https://branch.climateaction.tech/feed/",
		"https://nitter.net/FIBERFestival/rss",
		"https://www.thejournal.ie/feed/",
		"http://feeds.bbci.co.uk/news/world/europe/rss.xml"
	]
}
